{
  "Store": "Tchibo branch with Coffee Bar, CITY GALERIE, EG, Willy-Brandt-Platz 1, 86153 Augsburg",
  "Name": "2 Sport Tops, with Color and Uni",
  "ID": "#156859972",
  "Category": "Child & Baby",
  "Variants": [

      {
        "Size": "112/128",
        "Color": "Maroon",
        "Price": "14,99 €",
        "SOH": {
          "Shelf": "11",
          "BackRoom": "4"
        }
      },
      {
        "Size": "134/140",
        "Color": "Maroon",
        "Price": "14,99 €",
        "SOH": {
          "Shelf": "9",
          "BackRoom": "12"
        }
      },
      {
          "Size": "146/152",
          "Color": "Maroon",
          "Price": "14,99 €",
          "SOH": {
            "Shelf": "3",
            "BackRoom": "7"
          }
        },  {
            "Size": "158/164",
            "Color": "Maroon",
            "Price": "14,99 €",
            "SOH": {
              "Shelf": "11",
              "BackRoom": "3"
            }
          }
  ]
}
