{
  "Store": "Tchibo branch with Coffee Bar, CITY GALERIE, EG, Willy-Brandt-Platz 1, 86153 Augsburg",
  "Name": "Carrier Gown",
  "ID": "#122092927",
  "Category": "Women",
  "Variants": [
    {
      "Size": "XS 32/34",
      "Color": "Blue",
      "Price": "14,99 €",
      "SOH": {
        "Shelf": "7",
        "BackRoom": "8"
      }
    },
    {
      "Size": "S 36/38",
      "Color": "Blue",
      "Price": "14,99 €",
      "SOH": {
        "Shelf": "11",
        "BackRoom": "5"
      }
    },
    {
      "Size": "M 40/42",
      "Color": "Blue",
      "Price": "14,99 €",
      "SOH": {
        "Shelf": "0",
        "BackRoom": "0"
      }
    }
  ]
}
