{
  "Name": "Carrier Gown",
  "ID": "#122092927",
  "Category": "Women",
  "Stores": [
    {
      "Name": "Tchibo branch with Coffee Bar, Karolinenstrasse 16, 86150 Augsburg",
      "id": "LOC3235413",
      "Distance": "21 mts"
    },
    {
      "Name": "Tchibo branch with Coffee Bar, Bahnhofstrasse 18 1/3, 86150 Augsburg",
      "id": "LOC3763451",
      "Distance": "47 mts"
    }
  ]
}
